project_path,project_id
gitlab-org/build/CNG,4359271
gitlab-org/charts/auto-deploy-app,11915984
gitlab-org/charts/deploy-image-helm-base,7453181
gitlab-org/charts/gitlab,3828396
gitlab-org/charts/gitlab-runner,6329679
gitlab-org/ci-cd/custom-executors/autoscaler,13815397
gitlab-org/ci-cd/docker-machine,1254421
gitlab-org/ci-cd/gcp-exporter,5279538
gitlab-org/cluster-integration/auto-build-image,10400718
gitlab-org/cluster-integration/auto-deploy-image,11688089
gitlab-org/cluster-integration/helm-install-image,9184510
gitlab-org/cookbook-omnibus-gitlab,95156
gitlab-org/customers-gitlab-com,2670515
gitlab-org/discourse-omniauth-gitlab,150440
gitlab-org/distribution/gitlab-configurator,13682597
gitlab-org/docker-distribution-pruner,2651596
gitlab-org/Dockerfile,3101096
gitlab-org/gitaly,2009901
gitlab-org/gitaly-bench,4157550
gitlab-org/gitaly-proto,2694799
gitlab-org/gitlab,278964
gitlab-org/gitlab_emoji,36743
gitlab-org/gitlab_kramdown,5647182
gitlab-org/gitlab-compose-kit,4534254
gitlab-org/gitlab-development-kit,74823
gitlab-org/gitlab-docs,1794617
gitlab-org/gitlab-elasticsearch-indexer,2953390
gitlab-org/gitlab-exporter,1507906
gitlab-org/gitlab-foss,13083
gitlab-org/gitlab-gollum-lib,6043225
gitlab-org/gitlab-markup,1777822
gitlab-org/gitlab-mattermost,387896
gitlab-org/gitlab-omnibus-builder,145205
gitlab-org/gitlab-pages,734943
gitlab-org/gitlab-pages-proto,5981322
gitlab-org/gitlab-recipes,13764
gitlab-org/gitlab-runner,250833
gitlab-org/gitlab-shell,14022
gitlab-org/gitlab-terminal,7792567
gitlab-org/gitlab-workhorse,554859
gitlab-org/gitlabktl,11080193
gitlab-org/gitter/desktop,3626648
gitlab-org/gitter/docs,6938270
gitlab-org/gitter/gitter-android-app,7750843
gitlab-org/gitter/gitter-ios-app,8427052
gitlab-org/gitter/gitter-markdown-processor,3825482
gitlab-org/gitter/gitter-translations,6469877
gitlab-org/gitter/realtime-client,6299390
gitlab-org/gitter/sidecar,8226179
gitlab-org/gitter/styleguide,3787977
gitlab-org/gitter/troupeobjccommon,8375261
gitlab-org/gitter/webapp,3601513
gitlab-org/grafana-dashboards,928825
gitlab-org/omniauth-gitlab,143237
gitlab-org/omniauth-ldap,27726
gitlab-org/omnibus-gitlab,20699
gitlab-org/project-templates/android,10953870
gitlab-org/project-templates/contributing,10506825
gitlab-org/project-templates/dotnetcore,10973541
gitlab-org/project-templates/express,3843116
gitlab-org/project-templates/go-micro,11015994
gitlab-org/project-templates/hugo,10586771
gitlab-org/project-templates/iosswift,11196060
gitlab-org/project-templates/jekyll,4875494
gitlab-org/project-templates/rails,3844141
gitlab-org/project-templates/react,11380952
gitlab-org/project-templates/salesforcedx,13331704
gitlab-org/project-templates/spring,3842996
gitlab-org/prometheus-client-mmap,3362933
gitlab-org/prometheus-storage-migrator,4949400
gitlab-org/security-products/analyzers/bundler-audit,9358979
gitlab-org/security-products/analyzers/eslint,10476326
gitlab-org/security-products/analyzers/find-sec-bugs-groovy,7795571
gitlab-org/security-products/analyzers/find-sec-bugs-sbt,6487905
gitlab-org/security-products/analyzers/gemnasium,9450192
gitlab-org/security-products/analyzers/gemnasium-maven,9450197
gitlab-org/security-products/analyzers/gemnasium-python,9450195
gitlab-org/security-products/analyzers/gosec,7660893
gitlab-org/security-products/analyzers/klar,13922331
gitlab-org/security-products/analyzers/nodejs-scan,7145793
gitlab-org/security-products/analyzers/phpcs-security-audit,6392811
gitlab-org/security-products/analyzers/pmd-apex,13017938
gitlab-org/security-products/analyzers/retire.js,9396716
gitlab-org/security-products/analyzers/secrets,10861561
gitlab-org/security-products/analyzers/sobelow,11625232
gitlab-org/security-products/analyzers/spotbugs,11139665
gitlab-org/security-products/analyzers/tslint,10846951
gitlab-org/security-products/codequality,5498087
gitlab-org/security-products/dast,9762266
gitlab-org/security-products/dependency-scanning,5779760
gitlab-org/security-products/gemnasium-db,12006272
gitlab-org/security-products/gemnasium/api,5777179
gitlab-org/security-products/gemnasium/croncli,5777819
gitlab-org/security-products/gemnasium/gcp-config,5772881
gitlab-org/security-products/gemnasium/logcli,5777853
gitlab-org/security-products/gemnasium/maven-index-reader,5777939
gitlab-org/security-products/gemnasium/migrations,5777918
gitlab-org/security-products/gemnasium/nsqcli,5777952
gitlab-org/security-products/gemnasium/package-syncer,5777954
gitlab-org/security-products/gemnasium/pgcli,5777976
gitlab-org/security-products/gemnasium/registry-syncer,5778037
gitlab-org/security-products/gemnasium/registry-tracker,5778044
gitlab-org/security-products/gemnasium/resolver,5778056
gitlab-org/security-products/gemnasium/schema,5778074
gitlab-org/security-products/gemnasium/secrets,5778093
gitlab-org/security-products/gemnasium/semver,5778095
gitlab-org/security-products/gemnasium/web,5828233
gitlab-org/security-products/license-management,6130122
gitlab-org/security-products/sast,5373222
gitlab-org/serverless/runtimes/nodejs,11373038
gitlab-org/serverless/runtimes/ruby,11533294
gitlab-org/sidekiq-reliable-fetch,8362868
gitlab-org/security-products/advisory-db-curation-tools,13467157
gitlab-org/security-products/analyzers/bandit,6237088
gitlab-org/security-products/analyzers/brakeman,6237091
gitlab-org/security-products/analyzers/common,6126012
gitlab-org/security-products/analyzers/find-sec-bugs,5606894
gitlab-org/security-products/analyzers/find-sec-bugs-gradle,6280478
gitlab-org/security-products/analyzers/flawfinder,6237085
gitlab-org/security-products/analyzers/gemnasium-maven-plugin,13150952
gitlab-org/security-products/analyzers/go-ast-scanner,5971589
gitlab-org/security-products/analyzers/security-code-scan,6535935
gitlab-org/security-products/tests/apex-salesforce,13348998
gitlab-org/security-products/tests/c,5727416
gitlab-org/security-products/tests/common,6388398
gitlab-org/security-products/tests/container-scanning,11432834
gitlab-org/security-products/tests/cplusplus,5737157
gitlab-org/security-products/tests/elixir-phoenix,11520423
gitlab-org/security-products/tests/go,5996549
gitlab-org/security-products/tests/go-modules,13664986
gitlab-org/security-products/tests/inkscape,9712018
gitlab-org/security-products/tests/java-gradle,8368700
gitlab-org/security-products/tests/java-groovy,8368695
gitlab-org/security-products/tests/java-maven,5457651
gitlab-org/security-products/tests/java-maven-multimodules,5509547
gitlab-org/security-products/tests/js,10748426
gitlab-org/security-products/tests/js-npm,5457755
gitlab-org/security-products/tests/js-yarn,5456231
gitlab-org/security-products/tests/multiple-reports-per-category,14097509
gitlab-org/security-products/tests/php-composer,5467143
gitlab-org/security-products/tests/python-pip,5467277
gitlab-org/security-products/tests/python-pipenv,11574953
gitlab-org/security-products/tests/ruby-bundler,5465687
gitlab-org/security-products/tests/ruby-bundler_js-yarn,5486671
gitlab-org/security-products/tests/ruby-bundler-rails,5474112
gitlab-org/security-products/tests/sast,6328050
gitlab-org/security-products/tests/scala-sbt,6523803
gitlab-org/security-products/tests/secrets,11317506
gitlab-org/security-products/tests/typescript-yarn,10846938
gitlab-org/security-products/tests/webgoat,7688358
